Lab10/pm.vcd
$date
	Sun Apr  5 17:29:07 2020
$end
$version
	Icarus Verilog
$end
$timescale
	1s
$end
$scope module test $end
$var wire 32 ! PC [31:0] $end
$var reg 1 " clk $end
$var reg 1 # done $end
$var reg 1 $ reset $end
$var integer 32 % i [31:0] $end
$scope module pm $end
$var wire 1 & ForwardA $end
$var wire 1 ' ForwardB $end
$var wire 1 ( PCSrc $end
$var wire 1 ) Stall $end
$var wire 1 " clk $end
$var wire 1 $ reset $end
$var wire 1 * zero $end
$var wire 5 + wr_regnum_mw [4:0] $end
$var wire 5 , wr_regnum_de [4:0] $end
$var wire 32 - wr_data [31:0] $end
$var wire 5 . rt [4:0] $end
$var wire 5 / rs [4:0] $end
$var wire 32 0 rd2_data_mw [31:0] $end
$var wire 32 1 rd2_data_de [31:0] $end
$var wire 32 2 rd2_data [31:0] $end
$var wire 32 3 rd1_data [31:0] $end
$var wire 5 4 rd [4:0] $end
$var wire 6 5 opcode [5:0] $end
$var wire 30 6 next_PC [31:2] $end
$var wire 32 7 load_data [31:0] $end
$var wire 32 8 inst_if [31:0] $end
$var wire 32 9 inst_de [31:0] $end
$var wire 32 : imm [31:0] $end
$var wire 6 ; funct [5:0] $end
$var wire 32 < alu_out_data_mw [31:0] $end
$var wire 32 = alu_out_data_de [31:0] $end
$var wire 1 > RegWrite_mw $end
$var wire 1 ? RegWrite_de $end
$var wire 1 @ RegDst $end
$var wire 30 A PC_target [31:2] $end
$var wire 30 B PC_plus4_if [31:2] $end
$var wire 30 C PC_plus4_de [31:2] $end
$var wire 30 D PC_if [31:2] $end
$var wire 32 E PC [31:0] $end
$var wire 1 F MemWrite_mw $end
$var wire 1 G MemWrite_de $end
$var wire 1 H MemToReg_mw $end
$var wire 1 I MemToReg_de $end
$var wire 1 J MemRead_mw $end
$var wire 1 K MemRead_de $end
$var wire 32 L B_data [31:0] $end
$var wire 1 M BEQ $end
$var wire 32 N A_data [31:0] $end
$var wire 1 O ALUSrc $end
$var wire 3 P ALUOp [2:0] $end
$scope module PC_reg $end
$var wire 1 " clk $end
$var wire 1 Q enable $end
$var wire 1 $ reset $end
$var wire 30 R d [29:0] $end
$var reg 30 S q [29:0] $end
$upscope $end
$scope module alu $end
$var wire 32 T out [31:0] $end
$var wire 1 * zero $end
$var wire 32 U inB [31:0] $end
$var wire 32 V inA [31:0] $end
$var wire 3 W control [2:0] $end
$upscope $end
$scope module alu_out_data_DEMW $end
$var wire 1 " clk $end
$var wire 32 X d [31:0] $end
$var wire 1 Y enable $end
$var wire 1 $ reset $end
$var reg 32 Z q [31:0] $end
$upscope $end
$scope module branch_mux $end
$var wire 30 [ out [29:0] $end
$var wire 1 ( sel $end
$var wire 30 \ temp1 [29:0] $end
$var wire 30 ] temp2 [29:0] $end
$var wire 30 ^ B [29:0] $end
$var wire 30 _ A [29:0] $end
$upscope $end
$scope module data_memory $end
$var wire 32 ` addr [31:0] $end
$var wire 1 " clk $end
$var wire 32 a d_out [31:0] $end
$var wire 32 b data_out [31:0] $end
$var wire 32 c internal_data_in [31:0] $end
$var wire 1 $ reset $end
$var wire 1 d valid_address $end
$var wire 1 F mem_write $end
$var wire 1 J mem_read $end
$var wire 19 e index [18:0] $end
$var wire 32 f data_in [31:0] $end
$var integer 32 g i [31:0] $end
$upscope $end
$scope module decode $end
$var wire 1 O ALUSrc $end
$var wire 1 I MemToReg $end
$var wire 1 @ RegDst $end
$var wire 1 ? RegWrite $end
$var wire 6 h funct [5:0] $end
$var wire 1 i nop $end
$var wire 6 j opcode [5:0] $end
$var wire 1 k op0 $end
$var wire 1 G MemWrite $end
$var wire 1 K MemRead $end
$var wire 1 M BEQ $end
$var wire 3 l ALUOp [2:0] $end
$upscope $end
$scope module forward_a $end
$var wire 32 m B [31:0] $end
$var wire 32 n out [31:0] $end
$var wire 1 & sel $end
$var wire 32 o temp1 [31:0] $end
$var wire 32 p temp2 [31:0] $end
$var wire 32 q A [31:0] $end
$upscope $end
$scope module forward_b $end
$var wire 32 r B [31:0] $end
$var wire 32 s out [31:0] $end
$var wire 1 ' sel $end
$var wire 32 t temp1 [31:0] $end
$var wire 32 u temp2 [31:0] $end
$var wire 32 v A [31:0] $end
$upscope $end
$scope module imem $end
$var wire 30 w addr [29:0] $end
$var wire 32 x data [31:0] $end
$var reg 32 y i [31:0] $end
$upscope $end
$scope module imm_mux $end
$var wire 32 z A [31:0] $end
$var wire 32 { B [31:0] $end
$var wire 32 | out [31:0] $end
$var wire 1 O sel $end
$var wire 32 } temp1 [31:0] $end
$var wire 32 ~ temp2 [31:0] $end
$upscope $end
$scope module inst_IFDE $end
$var wire 1 " clk $end
$var wire 32 !" d [31:0] $end
$var wire 1 "" enable $end
$var wire 1 #" reset $end
$var reg 32 $" q [31:0] $end
$upscope $end
$scope module memRead_DEMW $end
$var wire 1 " clk $end
$var wire 1 K d $end
$var wire 1 %" enable $end
$var wire 1 $ reset $end
$var reg 1 J q $end
$upscope $end
$scope module memToReg_DEMW $end
$var wire 1 " clk $end
$var wire 1 I d $end
$var wire 1 &" enable $end
$var wire 1 $ reset $end
$var reg 1 H q $end
$upscope $end
$scope module memWrite_DEMW $end
$var wire 1 " clk $end
$var wire 1 G d $end
$var wire 1 '" enable $end
$var wire 1 (" reset $end
$var reg 1 F q $end
$upscope $end
$scope module next_PC_adder $end
$var wire 30 )" in1 [29:0] $end
$var wire 30 *" in2 [29:0] $end
$var wire 30 +" out [29:0] $end
$upscope $end
$scope module pc_if_mux $end
$var wire 30 ," A [29:0] $end
$var wire 30 -" B [29:0] $end
$var wire 30 ." out [29:0] $end
$var wire 1 ) sel $end
$var wire 30 /" temp1 [29:0] $end
$var wire 30 0" temp2 [29:0] $end
$upscope $end
$scope module pc_plus4_IFDE $end
$var wire 1 " clk $end
$var wire 30 1" d [29:0] $end
$var wire 1 2" enable $end
$var wire 1 3" reset $end
$var reg 30 4" q [29:0] $end
$upscope $end
$scope module rd2_data_DEMW $end
$var wire 1 " clk $end
$var wire 32 5" d [31:0] $end
$var wire 1 6" enable $end
$var wire 1 $ reset $end
$var reg 32 7" q [31:0] $end
$upscope $end
$scope module rd_mux $end
$var wire 5 8" A [4:0] $end
$var wire 5 9" B [4:0] $end
$var wire 5 :" out [4:0] $end
$var wire 1 @ sel $end
$var wire 5 ;" temp1 [4:0] $end
$var wire 5 <" temp2 [4:0] $end
$upscope $end
$scope module regWrite_DEMW $end
$var wire 1 " clk $end
$var wire 1 ? d $end
$var wire 1 =" enable $end
$var wire 1 >" reset $end
$var reg 1 > q $end
$upscope $end
$scope module rf $end
$var wire 1 " clock $end
$var wire 32 ?" internal_rdData [31:0] $end
$var wire 1 > rdWriteEnable $end
$var wire 1 $ reset $end
$var wire 32 @" rsData [31:0] $end
$var wire 5 A" rsNum [4:0] $end
$var wire 32 B" rtData [31:0] $end
$var wire 5 C" rtNum [4:0] $end
$var wire 5 D" rdNum [4:0] $end
$var wire 32 E" rdData [31:0] $end
$var integer 32 F" i [31:0] $end
$upscope $end
$scope module target_PC_adder $end
$var wire 30 G" in1 [29:0] $end
$var wire 30 H" in2 [29:0] $end
$var wire 30 I" out [29:0] $end
$upscope $end
$scope module wb_mux $end
$var wire 32 J" A [31:0] $end
$var wire 32 K" B [31:0] $end
$var wire 32 L" out [31:0] $end
$var wire 1 H sel $end
$var wire 32 M" temp1 [31:0] $end
$var wire 32 N" temp2 [31:0] $end
$upscope $end
$scope module wr_regnum_DEMW $end
$var wire 1 " clk $end
$var wire 5 O" d [4:0] $end
$var wire 1 P" enable $end
$var wire 1 $ reset $end
$var reg 5 Q" q [4:0] $end
$upscope $end
$upscope $end
$upscope $end
$scope module test $end
$scope module pm $end
$scope module rf $end
$var reg 32 R" \r[0] [31:0] $end
$upscope $end
$upscope $end
$upscope $end
$scope module test $end
$scope module pm $end
$scope module rf $end
$var reg 32 S" \r[1] [31:0] $end
$upscope $end
$upscope $end
$upscope $end
$scope module test $end
$scope module pm $end
$scope module rf $end
$var reg 32 T" \r[2] [31:0] $end
$upscope $end
$upscope $end
$upscope $end
$scope module test $end
$scope module pm $end
$scope module rf $end
$var reg 32 U" \r[3] [31:0] $end
$upscope $end
$upscope $end
$upscope $end
$scope module test $end
$scope module pm $end
$scope module rf $end
$var reg 32 V" \r[4] [31:0] $end
$upscope $end
$upscope $end
$upscope $end
$scope module test $end
$scope module pm $end
$scope module rf $end
$var reg 32 W" \r[5] [31:0] $end
$upscope $end
$upscope $end
$upscope $end
$scope module test $end
$scope module pm $end
$scope module rf $end
$var reg 32 X" \r[6] [31:0] $end
$upscope $end
$upscope $end
$upscope $end
$scope module test $end
$scope module pm $end
$scope module rf $end
$var reg 32 Y" \r[7] [31:0] $end
$upscope $end
$upscope $end
$upscope $end
$scope module test $end
$scope module pm $end
$scope module rf $end
$var reg 32 Z" \r[8] [31:0] $end
$upscope $end
$upscope $end
$upscope $end
$scope module test $end
$scope module pm $end
$scope module rf $end
$var reg 32 [" \r[9] [31:0] $end
$upscope $end
$upscope $end
$upscope $end
$scope module test $end
$scope module pm $end
$scope module rf $end
$var reg 32 \" \r[10] [31:0] $end
$upscope $end
$upscope $end
$upscope $end
$scope module test $end
$scope module pm $end
$scope module rf $end
$var reg 32 ]" \r[11] [31:0] $end
$upscope $end
$upscope $end
$upscope $end
$scope module test $end
$scope module pm $end
$scope module rf $end
$var reg 32 ^" \r[12] [31:0] $end
$upscope $end
$upscope $end
$upscope $end
$scope module test $end
$scope module pm $end
$scope module rf $end
$var reg 32 _" \r[13] [31:0] $end
$upscope $end
$upscope $end
$upscope $end
$scope module test $end
$scope module pm $end
$scope module rf $end
$var reg 32 `" \r[14] [31:0] $end
$upscope $end
$upscope $end
$upscope $end
$scope module test $end
$scope module pm $end
$scope module rf $end
$var reg 32 a" \r[15] [31:0] $end
$upscope $end
$upscope $end
$upscope $end
$scope module test $end
$scope module pm $end
$scope module rf $end
$var reg 32 b" \r[16] [31:0] $end
$upscope $end
$upscope $end
$upscope $end
$scope module test $end
$scope module pm $end
$scope module rf $end
$var reg 32 c" \r[17] [31:0] $end
$upscope $end
$upscope $end
$upscope $end
$scope module test $end
$scope module pm $end
$scope module rf $end
$var reg 32 d" \r[18] [31:0] $end
$upscope $end
$upscope $end
$upscope $end
$scope module test $end
$scope module pm $end
$scope module rf $end
$var reg 32 e" \r[19] [31:0] $end
$upscope $end
$upscope $end
$upscope $end
$scope module test $end
$scope module pm $end
$scope module rf $end
$var reg 32 f" \r[20] [31:0] $end
$upscope $end
$upscope $end
$upscope $end
$scope module test $end
$scope module pm $end
$scope module rf $end
$var reg 32 g" \r[21] [31:0] $end
$upscope $end
$upscope $end
$upscope $end
$scope module test $end
$scope module pm $end
$scope module rf $end
$var reg 32 h" \r[22] [31:0] $end
$upscope $end
$upscope $end
$upscope $end
$scope module test $end
$scope module pm $end
$scope module rf $end
$var reg 32 i" \r[23] [31:0] $end
$upscope $end
$upscope $end
$upscope $end
$scope module test $end
$scope module pm $end
$scope module rf $end
$var reg 32 j" \r[24] [31:0] $end
$upscope $end
$upscope $end
$upscope $end
$scope module test $end
$scope module pm $end
$scope module rf $end
$var reg 32 k" \r[25] [31:0] $end
$upscope $end
$upscope $end
$upscope $end
$scope module test $end
$scope module pm $end
$scope module rf $end
$var reg 32 l" \r[26] [31:0] $end
$upscope $end
$upscope $end
$upscope $end
$scope module test $end
$scope module pm $end
$scope module rf $end
$var reg 32 m" \r[27] [31:0] $end
$upscope $end
$upscope $end
$upscope $end
$scope module test $end
$scope module pm $end
$scope module rf $end
$var reg 32 n" \r[28] [31:0] $end
$upscope $end
$upscope $end
$upscope $end
$scope module test $end
$scope module pm $end
$scope module rf $end
$var reg 32 o" \r[29] [31:0] $end
$upscope $end
$upscope $end
$upscope $end
$scope module test $end
$scope module pm $end
$scope module rf $end
$var reg 32 p" \r[30] [31:0] $end
$upscope $end
$upscope $end
$upscope $end
$scope module test $end
$scope module pm $end
$scope module rf $end
$var reg 32 q" \r[31] [31:0] $end
$upscope $end
$upscope $end
$upscope $end
$enddefinitions $end
#0
$dumpvars
b10000000000010000000000000000 q"
b10000000000010000000000000000 p"
b10000000000010000000000000000 o"
b10000000000010000000000000000 n"
b10000000000010000000000000000 m"
b10000000000010000000000000000 l"
b10000000000010000000000000000 k"
b10000000000010000000000000000 j"
b10000000000010000000000000000 i"
b10000000000010000000000000000 h"
b10000000000010000000000000000 g"
b10000000000010000000000000000 f"
b10000000000010000000000000000 e"
b10000000000010000000000000000 d"
b10000000000010000000000000000 c"
b10000000000010000000000000000 b"
b10000000000010000000000000000 a"
b10000000000010000000000000000 `"
b10000000000010000000000000000 _"
b10000000000010000000000000000 ^"
b10000000000010000000000000000 ]"
b10000000000010000000000000000 \"
b10000000000010000000000000000 ["
b10000000000010000000000000000 Z"
b10000000000010000000000000000 Y"
b10000000000010000000000000000 X"
b10000000000010000000000000000 W"
b10000000000010000000000000000 V"
b10000000000010000000000000000 U"
b10000000000010000000000000000 T"
b10000000000010000000000000000 S"
b0 R"
bx Q"
1P"
bx O"
bx N"
bx M"
bx L"
bx K"
bx J"
bx I"
bx H"
bx G"
b100000 F"
bx E"
bx D"
bx C"
bx B"
bx A"
bx @"
bx ?"
1>"
1="
bx <"
bx ;"
bx :"
bx 9"
bx 8"
bx 7"
16"
bx 5"
bx 4"
13"
x2"
bx 1"
bx 0"
bx /"
bx ."
bx -"
bx ,"
bx +"
b1 *"
bx )"
1("
1'"
1&"
1%"
bx $"
1#"
x""
bx !"
bx ~
bx }
bx |
bx {
bx z
b100000000 y
bx x
bx w
bx v
bx u
bx t
bx s
bx r
bx q
bx p
bx o
bx n
bx m
bx l
xk
bx j
xi
bx h
b1000000000000000000 g
bx f
bx e
xd
bx c
bx b
bx a
bx `
bx _
bx ^
bx ]
bx \
bx [
bx Z
1Y
bx X
bx W
bx V
bx U
bx T
bx S
bx R
1Q
bx P
xO
bx N
xM
bx L
xK
xJ
xI
xH
xG
xF
bx00 E
bx D
bx C
bx B
bx A
x@
x?
x>
bx =
bx <
bx ;
bx :
bx 9
bx 8
bx 7
bx 6
bx 5
bx 4
bx 3
bx 2
bx 1
bx 0
bx /
bx .
bx -
bx ,
bx +
x*
x)
x(
x'
x&
b100000 %
1$
0#
0"
bx00 !
$end
#2
b0 ,
b0 :"
b0 O"
b0 0"
b0 <"
b0 ;"
b0 H"
b0 ~
b11011110101011011011111011101111 a
b0 e
b0 -
b0 E"
b0 L"
12"
1""
0)
0'
0&
b100000000000000000000 )"
b100000000000000000000 -"
b100000000000000000000 w
b0 ;
b0 h
1k
b0 5
b0 j
b0 4
b0 9"
b0 .
b0 8"
b0 C"
b0 /
b0 A"
b0 :
b0 {
b0 N"
0d
b0 p
b0 u
b0 M"
b10000000000000000000000 E
b10000000000000000000000 !
b100000000000000000000 S
b0 C
b0 4"
b0 G"
b0 9
b0 $"
0F
0J
0H
0>
b0 <
b0 Z
b0 `
b0 m
b0 r
b0 J"
b0 0
b0 f
b0 7"
b0 +
b0 D"
b0 Q"
1"
#3
b0 L
b0 U
b0 |
b0 }
b0 1
b0 s
b0 z
b0 5"
b0 N
b0 V
b0 n
b0 t
b0 o
b0 ?"
b0 2
b0 v
b0 B"
b0 3
b0 q
b0 @"
#4
b100000000000000000001 6
b100000000000000000001 R
b100000000000000000001 [
b100000000000000000001 \
0?
b100000000000000000001 D
b100000000000000000001 _
b100000000000000000001 ."
b100000000000000000001 1"
b0 ]
b100000000000000000001 /"
0(
1@
0O
1*
b0 P
b0 W
b0 l
1i
b0 A
b0 ^
b0 I"
b100000000000000000001 B
b100000000000000000001 +"
b100000000000000000001 ,"
0M
0I
0K
0G
0"
#5
b0 =
b0 T
b0 X
b10001110100000100000000000000000 8
b10001110100000100000000000000000 x
b10001110100000100000000000000000 !"
b0 7
b0 b
b0 K"
b0 c
#6
1"
#7
03"
0#"
0("
0>"
0$
#8
0"
#10
b100000000000000000001 )"
b100000000000000000001 -"
b100000000000000000001 w
0k
b100011 5
b100011 j
b10 .
b10 8"
b10 C"
b10100 /
b10100 A"
b10000000000000000000100 E
b10000000000000000000100 !
b100000000000000000001 S
b100000000000000000001 C
b100000000000000000001 4"
b100000000000000000001 G"
b10001110100000100000000000000000 9
b10001110100000100000000000000000 $"
1"
#11
b10000000000010000000000000000 L
b10000000000010000000000000000 U
b10000000000010000000000000000 |
b10000000000010000000000000000 }
b10000000000010000000000000000 1
b10000000000010000000000000000 s
b10000000000010000000000000000 z
b10000000000010000000000000000 5"
b10000000000010000000000000000 N
b10000000000010000000000000000 V
b10000000000010000000000000000 n
b10000000000010000000000000000 t
b10000000000010000000000000000 o
b10000000000010000000000000000 2
b10000000000010000000000000000 v
b10000000000010000000000000000 B"
b10000000000010000000000000000 3
b10000000000010000000000000000 q
b10000000000010000000000000000 @"
#12
b100000000000000000010 6
b100000000000000000010 R
b100000000000000000010 [
b100000000000000000010 \
b10 ,
b10 :"
b10 O"
b0 L
b0 U
b0 |
1?
b100000000000000000010 D
b100000000000000000010 _
b100000000000000000010 ."
b100000000000000000010 1"
b10 ;"
b0 }
b100000000000000000010 /"
0@
1O
0i
b100000000000000000010 B
b100000000000000000010 +"
b100000000000000000010 ,"
1I
1K
b100000000000000000001 A
b100000000000000000001 ^
b100000000000000000001 I"
0"
#13
0*
b10001110100000110000000000000100 8
b10001110100000110000000000000100 x
b10001110100000110000000000000100 !"
#14
b11 ,
b11 :"
b11 O"
b100 L
b100 U
b100 |
b1 a
b100000000000000 e
b11 ;"
b100 H"
b100 ~
1d
b100 ;
b100 h
b11 .
b11 8"
b11 C"
b100 :
b100 {
b100000000000000000010 )"
b100000000000000000010 -"
b100000000000000000010 w
b10 +
b10 D"
b10 Q"
b10000000000010000000000000000 0
b10000000000010000000000000000 f
b10000000000010000000000000000 7"
b10000000000010000000000000000 <
b10000000000010000000000000000 Z
b10000000000010000000000000000 `
b10000000000010000000000000000 m
b10000000000010000000000000000 r
b10000000000010000000000000000 J"
1>
1H
1J
b10001110100000110000000000000100 9
b10001110100000110000000000000100 $"
b100000000000000000010 C
b100000000000000000010 4"
b100000000000000000010 G"
b10000000000000000001000 E
b10000000000000000001000 !
b100000000000000000010 S
b10000000000010000000000000000 =
b10000000000010000000000000000 T
b10000000000010000000000000000 X
1"
#16
b100000000000000000011 6
b100000000000000000011 R
b100000000000000000011 [
b100000000000000000011 \
b100000000000000000011 D
b100000000000000000011 _
b100000000000000000011 ."
b100000000000000000011 1"
b100000000000000000011 /"
b10000000000010000000000000100 =
b10000000000010000000000000100 T
b10000000000010000000000000100 X
b100000000000000000011 B
b100000000000000000011 +"
b100000000000000000011 ,"
b100000000000000000110 A
b100000000000000000110 ^
b100000000000000000110 I"
0"
#17
b1 -
b1 E"
b1 L"
b1 N"
b10001110100001000000000000001000 8
b10001110100001000000000000001000 x
b10001110100001000000000000001000 !"
b1 7
b1 b
b1 K"
b10000000000010000000000000000 c
#18
b100 ,
b100 :"
b100 O"
b1000 L
b1000 U
b1000 |
b100 ;"
b1000 H"
b1000 ~
b11111111 a
b100000000000001 e
b10000000000010000000000000000 1
b10000000000010000000000000000 s
b10000000000010000000000000000 z
b10000000000010000000000000000 5"
b10000000000010000000000000000 t
b100000000000000000011 )"
b100000000000000000011 -"
b100000000000000000011 w
b1000 ;
b1000 h
b100 .
b100 8"
b100 C"
b1000 :
b1000 {
b0 u
0'
b10000000000000000001100 E
b10000000000000000001100 !
b100000000000000000011 S
b100000000000000000011 C
b100000000000000000011 4"
b100000000000000000011 G"
b10001110100001000000000000001000 9
b10001110100001000000000000001000 $"
b10000000000010000000000000100 <
b10000000000010000000000000100 Z
b10000000000010000000000000100 `
b10000000000010000000000000100 m
b10000000000010000000000000100 r
b10000000000010000000000000100 J"
b11 +
b11 D"
b11 Q"
b1 T"
b1 ?"
1"
#20
b100000000000000000100 6
b100000000000000000100 R
b100000000000000000100 [
b100000000000000000100 \
b100000000000000000100 D
b100000000000000000100 _
b100000000000000000100 ."
b100000000000000000100 1"
b100000000000000000100 /"
b10000000000010000000000001000 =
b10000000000010000000000001000 T
b10000000000010000000000001000 X
b100000000000000000100 B
b100000000000000000100 +"
b100000000000000000100 ,"
b100000000000000001011 A
b100000000000000001011 ^
b100000000000000001011 I"
0"
#21
b11111111 -
b11111111 E"
b11111111 L"
b11111111 N"
b11111111 7
b11111111 b
b11111111 K"
b10001110100001010000000000001100 8
b10001110100001010000000000001100 x
b10001110100001010000000000001100 !"
#22
b101 ,
b101 :"
b101 O"
b1100 L
b1100 U
b1100 |
b10000000000 a
b100000000000010 e
b101 ;"
b1100 H"
b1100 ~
b1100 ;
b1100 h
b101 .
b101 8"
b101 C"
b1100 :
b1100 {
b100000000000000000100 )"
b100000000000000000100 -"
b100000000000000000100 w
b11111111 U"
b100 +
b100 D"
b100 Q"
b10000000000010000000000001000 <
b10000000000010000000000001000 Z
b10000000000010000000000001000 `
b10000000000010000000000001000 m
b10000000000010000000000001000 r
b10000000000010000000000001000 J"
b10001110100001010000000000001100 9
b10001110100001010000000000001100 $"
b100000000000000000100 C
b100000000000000000100 4"
b100000000000000000100 G"
b10000000000000000010000 E
b10000000000000000010000 !
b100000000000000000100 S
b11111111 ?"
1"
#24
b100000000000000000101 6
b100000000000000000101 R
b100000000000000000101 [
b100000000000000000101 \
b100000000000000000101 D
b100000000000000000101 _
b100000000000000000101 ."
b100000000000000000101 1"
b100000000000000000101 /"
b10000000000010000000000001100 =
b10000000000010000000000001100 T
b10000000000010000000000001100 X
b100000000000000000101 B
b100000000000000000101 +"
b100000000000000000101 ,"
b100000000000000010000 A
b100000000000000010000 ^
b100000000000000010000 I"
0"
#25
b10000000000 -
b10000000000 E"
b10000000000 L"
b10000000000 N"
b10000000000 7
b10000000000 b
b10000000000 K"
b10001110100001100000000000010000 8
b10001110100001100000000000010000 x
b10001110100001100000000000010000 !"
#26
b110 ,
b110 :"
b110 O"
b10000 L
b10000 U
b10000 |
b110 ;"
b10000 H"
b10000 ~
b1100100 a
b100000000000011 e
b10000000000010000000000000000 1
b10000000000010000000000000000 s
b10000000000010000000000000000 z
b10000000000010000000000000000 5"
b10000000000010000000000000000 t
b100000000000000000101 )"
b100000000000000000101 -"
b100000000000000000101 w
b10000 ;
b10000 h
b110 .
b110 8"
b110 C"
b10000 :
b10000 {
b0 u
0'
b10000000000000000010100 E
b10000000000000000010100 !
b100000000000000000101 S
b100000000000000000101 C
b100000000000000000101 4"
b100000000000000000101 G"
b10001110100001100000000000010000 9
b10001110100001100000000000010000 $"
b10000000000010000000000001100 <
b10000000000010000000000001100 Z
b10000000000010000000000001100 `
b10000000000010000000000001100 m
b10000000000010000000000001100 r
b10000000000010000000000001100 J"
b101 +
b101 D"
b101 Q"
b10000000000 V"
b10000000000 ?"
1"
#28
b100000000000000000110 6
b100000000000000000110 R
b100000000000000000110 [
b100000000000000000110 \
b100000000000000000110 D
b100000000000000000110 _
b100000000000000000110 ."
b100000000000000000110 1"
b100000000000000000110 /"
b10000000000010000000000010000 =
b10000000000010000000000010000 T
b10000000000010000000000010000 X
b100000000000000000110 B
b100000000000000000110 +"
b100000000000000000110 ,"
b100000000000000010101 A
b100000000000000010101 ^
b100000000000000010101 I"
0"
#29
b1100100 -
b1100100 E"
b1100100 L"
b1100100 N"
b1100100 7
b1100100 b
b1100100 K"
b10101110100001100000000000000100 8
b10101110100001100000000000000100 x
b10101110100001100000000000000100 !"
#30
1("
1>"
b0 /"
b100000000000000000110 0"
02"
0""
1)
b10000000000010000000000010000 1
b10000000000010000000000010000 s
b10000000000010000000000010000 z
b10000000000010000000000010000 5"
b100 L
b100 U
b100 |
b0 t
b10000000000010000000000010000 u
b11001000 a
b100000000000100 e
b100 H"
b100 ~
1'
b100 ;
b100 h
b101011 5
b101011 j
b100 :
b100 {
b100000000000000000110 )"
b100000000000000000110 -"
b100000000000000000110 w
b1100100 W"
b110 +
b110 D"
b110 Q"
b10000000000010000000000010000 <
b10000000000010000000000010000 Z
b10000000000010000000000010000 `
b10000000000010000000000010000 m
b10000000000010000000000010000 r
b10000000000010000000000010000 J"
b10101110100001100000000000000100 9
b10101110100001100000000000000100 $"
b100000000000000000110 C
b100000000000000000110 4"
b100000000000000000110 G"
b10000000000000000011000 E
b10000000000000000011000 !
b100000000000000000110 S
b1100100 ?"
1"
#32
b0 ,
b0 :"
b0 O"
0?
b0 ;"
1@
b10000000000010000000000000100 =
b10000000000010000000000000100 T
b10000000000010000000000000100 X
0I
0K
1G
b100000000000000000111 B
b100000000000000000111 +"
b100000000000000000111 ,"
b100000000000000001010 A
b100000000000000001010 ^
b100000000000000001010 I"
0"
#33
b11001000 -
b11001000 E"
b11001000 L"
b11001000 N"
b11001000 7
b11001000 b
b11001000 K"
b10001110100001110000000000000100 8
b10001110100001110000000000000100 x
b10001110100001110000000000000100 !"
#34
b100000000000000000111 6
b100000000000000000111 R
b100000000000000000111 [
b100000000000000000111 \
b100000000000000000111 D
b100000000000000000111 _
b100000000000000000111 ."
b100000000000000000111 1"
0("
0>"
b100000000000000000111 /"
b0 0"
b11111111 a
b100000000000001 e
b10000000000010000000000000000 1
b10000000000010000000000000000 s
b10000000000010000000000000000 z
b10000000000010000000000000000 5"
b10000000000010000000000000100 -
b10000000000010000000000000100 E"
b10000000000010000000000000100 L"
12"
1""
0)
b10000000000010000000000000000 t
b0 N"
b0 u
b10000000000010000000000000100 M"
0'
0J
0H
0>
b10000000000010000000000000100 <
b10000000000010000000000000100 Z
b10000000000010000000000000100 `
b10000000000010000000000000100 m
b10000000000010000000000000100 r
b10000000000010000000000000100 J"
b10000000000010000000000010000 0
b10000000000010000000000010000 f
b10000000000010000000000010000 7"
b0 +
b0 D"
b0 Q"
b11001000 X"
b11001000 ?"
1"
#35
b11001000 1
b11001000 s
b11001000 z
b11001000 5"
b11001000 t
b10000000000010000000000000100 ?"
b11001000 2
b11001000 v
b11001000 B"
#36
0"
#37
b0 7
b0 b
b0 K"
b10000000000010000000000010000 c
#38
b100011 5
b100011 j
b111 .
b111 8"
b111 C"
b100000000000000000111 )"
b100000000000000000111 -"
b100000000000000000111 w
b11001000 0
b11001000 f
b11001000 7"
1F
b10001110100001110000000000000100 9
b10001110100001110000000000000100 $"
b100000000000000000111 C
b100000000000000000111 4"
b100000000000000000111 G"
b10000000000000000011100 E
b10000000000000000011100 !
b100000000000000000111 S
1"
#39
b10000000000010000000000000000 1
b10000000000010000000000000000 s
b10000000000010000000000000000 z
b10000000000010000000000000000 5"
b10000000000010000000000000000 t
b10000000000010000000000000000 2
b10000000000010000000000000000 v
b10000000000010000000000000000 B"
#40
b100000000000000001000 6
b100000000000000001000 R
b100000000000000001000 [
b111 ,
b111 :"
b111 O"
1?
b100000000000000001000 \
b111 ;"
b100000000000000001000 D
b100000000000000001000 _
b100000000000000001000 ."
b100000000000000001000 1"
0@
b100000000000000001000 /"
1I
1K
0G
b100000000000000001000 B
b100000000000000001000 +"
b100000000000000001000 ,"
b100000000000000001011 A
b100000000000000001011 ^
b100000000000000001011 I"
0"
#41
b101001010100000000100000 8
b101001010100000000100000 x
b101001010100000000100000 !"
b11001000 c
#42
b101 ,
b101 :"
b101 O"
b100000000100000 L
b100000000100000 U
b100000000100000 |
b10000000000010000000000000000 1
b10000000000010000000000000000 s
b10000000000010000000000000000 z
b10000000000010000000000000000 5"
b101 ;"
b100000000100000 H"
b100000000100000 ~
b0 -
b0 E"
b0 L"
b10000000000010000000000000000 t
b0 u
b100000000000000001000 )"
b100000000000000001000 -"
b100000000000000001000 w
b100000 ;
b100000 h
1k
b0 5
b0 j
b1000 4
b1000 9"
b101 .
b101 8"
b101 C"
b101 /
b101 A"
b100000000100000 :
b100000000100000 {
b0 M"
0'
b10000000000000000100000 E
b10000000000000000100000 !
b100000000000000001000 S
b100000000000000001000 C
b100000000000000001000 4"
b100000000000000001000 G"
b101001010100000000100000 9
b101001010100000000100000 $"
0F
1J
1H
1>
b10000000000010000000000000000 0
b10000000000010000000000000000 f
b10000000000010000000000000000 7"
b111 +
b111 D"
b111 Q"
b11001000 a
1"
#43
b1100100 1
b1100100 s
b1100100 z
b1100100 5"
b1100100 N
b1100100 V
b1100100 n
b1100100 t
b1100100 o
b0 ?"
b1100100 2
b1100100 v
b1100100 B"
b1100100 3
b1100100 q
b1100100 @"
#44
b100000000000000001001 6
b100000000000000001001 R
b100000000000000001001 [
b100000000000000001001 \
b1000 ,
b1000 :"
b1000 O"
b1100100 L
b1100100 U
b1100100 |
b100000000000000001001 D
b100000000000000001001 _
b100000000000000001001 ."
b100000000000000001001 1"
b0 ;"
b1000 <"
b1100100 }
b0 ~
b100000000000000001001 /"
1@
0O
b100000000000000001001 B
b100000000000000001001 +"
b100000000000000001001 ,"
0I
0K
b100000100000000101000 A
b100000100000000101000 ^
b100000100000000101000 I"
0"
#45
b11001000 -
b11001000 E"
b11001000 L"
b11001000 N"
1*
b100000110100100000100010 8
b100000110100100000100010 x
b100000110100100000100010 !"
b11001000 7
b11001000 b
b11001000 K"
b10000000000010000000000000000 c
